\BOOKMARK [1][-]{section.1}{Basic concepts}{}% 1
\BOOKMARK [2][-]{subsection.1.1}{System}{section.1}% 2
\BOOKMARK [2][-]{subsection.1.2}{Model}{section.1}% 3
\BOOKMARK [2][-]{subsection.1.3}{System perimeter}{section.1}% 4
\BOOKMARK [3][-]{subsubsection.1.3.1}{Stakeholder}{subsection.1.3}% 5
\BOOKMARK [2][-]{subsection.1.4}{System Life Cycle}{section.1}% 6
